{
    "model": {
        "name": "Language Detection",
        "model_name": "langdetect",
        "author": "Zi Xing",
        "version": "1.0.0.0",
        "description": "Model for predicting a given languge (106 Supported Languages)"
    },
    "training_properties":{
        "epoch": 30,
        "vec_dim": 200,
        "test_ratio": 0.8,
        "architecture": "cnn",
        "batch_size": 256
    },
    "classification": [
        {"l": "afrikaans", "f": "af.dat"},
        {"l": "amharic", "f": "am.dat"},
		{"l": "arabic", "f": "ar.dat"},
		{"l": "azerbaijani", "f": "az.dat"},
		{"l": "belarusian", "f": "be.dat"},
		{"l": "bulgarian", "f": "bg.dat"},
		{"l": "bengali", "f": "bn.dat"},
		{"l": "bosnian", "f": "bs.dat"},
		{"l": "catalan", "f": "ca.dat"},
		{"l": "cebuano", "f": "ceb.dat"},
		{"l": "corsican", "f": "co.dat"},
		{"l": "czech", "f": "cs.dat"},
		{"l": "welsh", "f": "cy.dat"},
		{"l": "danish", "f": "da.dat"},
		{"l": "german", "f": "de.dat"},
		{"l": "greek", "f": "el.dat"},
		{"l": "english", "f": "en.dat"},
		{"l": "esperanto", "f": "eo.dat"},
		{"l": "spanish", "f": "es.dat"},
		{"l": "estonian", "f": "et.dat"},
		{"l": "basque", "f": "eu.dat"},
		{"l": "persian", "f": "fa.dat"},
		{"l": "finnish", "f": "fi.dat"},
		{"l": "french", "f": "fr.dat"},
		{"l": "frisian", "f": "fy.dat"},
		{"l": "irish", "f": "ga.dat"},
		{"l": "scots_gaelic", "f": "gd.dat"},
		{"l": "galician", "f": "gl.dat"},
		{"l": "gujarati", "f": "gu.dat"},
		{"l": "hausa", "f": "ha.dat"},
		{"l": "hawaiian", "f": "haw.dat"},
		{"l": "hebrew", "f": "he.dat"},
		{"l": "hindi", "f": "hi.dat"},
		{"l": "hmong", "f": "hmn.dat"},
		{"l": "croatian", "f": "hr.dat"},
		{"l": "haitian_creole", "f": "ht.dat"},
		{"l": "hungarian", "f": "hu.dat"},
		{"l": "armenian", "f": "hy.dat"},
		{"l": "indonesian", "f": "id.dat"},
		{"l": "igbo", "f": "ig.dat"},
		{"l": "icelandic", "f": "is.dat"},
		{"l": "italian", "f": "it.dat"},
		{"l": "japanese", "f": "ja.dat"},
		{"l": "georgian", "f": "ka.dat"},
		{"l": "kazakh", "f": "kk.dat"},
		{"l": "khmer", "f": "km.dat"},
		{"l": "kannada", "f": "kn.dat"},
		{"l": "korean", "f": "ko.dat"},
		{"l": "kurdish", "f": "ku.dat"},
		{"l": "kyrgyz", "f": "ky.dat"},
		{"l": "latin", "f": "la.dat"},
		{"l": "luxembourgish", "f": "lb.dat"},
		{"l": "lao", "f": "lo.dat"},
		{"l": "lithuanian", "f": "lt.dat"},
		{"l": "latvian", "f": "lv.dat"},
		{"l": "malagasy", "f": "mg.dat"},
		{"l": "maori", "f": "mi.dat"},
		{"l": "macedonian", "f": "mk.dat"},
		{"l": "malayalam", "f": "ml.dat"},
		{"l": "mongolian", "f": "mn.dat"},
		{"l": "marathi", "f": "mr.dat"},
		{"l": "malay", "f": "ms.dat"},
		{"l": "maltese", "f": "mt.dat"},
		{"l": "myanmar", "f": "my.dat"},
		{"l": "nepali", "f": "ne.dat"},
		{"l": "dutch", "f": "nl.dat"},
		{"l": "norwegian", "f": "no.dat"},
		{"l": "nyanja", "f": "ny.dat"},
		{"l": "odia", "f": "or.dat"},
		{"l": "punjabi", "f": "pa.dat"},
		{"l": "polish", "f": "pl.dat"},
		{"l": "pashto", "f": "ps.dat"},
		{"l": "portuguese", "f": "pt.dat"},
		{"l": "romanian", "f": "ro.dat"},
		{"l": "russian", "f": "ru.dat"},
		{"l": "sindhi", "f": "sd.dat"},
		{"l": "sinhala", "f": "si.dat"},
		{"l": "slovak", "f": "sk.dat"},
		{"l": "slovenian", "f": "sl.dat"},
		{"l": "samoan", "f": "sm.dat"},
		{"l": "shona", "f": "sn.dat"},
		{"l": "somali", "f": "so.dat"},
		{"l": "albanian", "f": "sq.dat"},
		{"l": "serbian", "f": "sr.dat"},
		{"l": "sesotho", "f": "st.dat"},
		{"l": "sundanese", "f": "su.dat"},
		{"l": "swedish", "f": "sv.dat"},
		{"l": "swahili", "f": "sw.dat"},
		{"l": "tamil", "f": "ta.dat"},
		{"l": "telugu", "f": "te.dat"},
		{"l": "tajik", "f": "tg.dat"},
		{"l": "thai", "f": "th.dat"},
		{"l": "tagalog", "f": "tl.dat"},
		{"l": "turkish", "f": "tr.dat"},
		{"l": "uyghur", "f": "ug.dat"},
		{"l": "ukrainian", "f": "uk.dat"},
		{"l": "urdu", "f": "ur.dat"},
		{"l": "uzbek", "f": "uz.dat"},
		{"l": "vietnamese", "f": "vi.dat"},
		{"l": "xhosa", "f": "xh.dat"},
		{"l": "yiddish", "f": "yi.dat"},
		{"l": "yoruba", "f": "yo.dat"},
		{"l": "chinese_simplified", "f": "zh-cn.dat"},
		{"l": "chinese_traditional", "f": "zh-tw.dat"},
		{"l": "zulu", "f": "zu.dat"}
    ]
}